Element name,Type,L[m],S[m],X[m],Y[m],Z[m],Section,Subsystem,Managed in CS,Device server name (executable),Device server instance name,DS class name,Tango name,Alias,Triggered by TTL,Custom GUI,Aggregate GUI,Description,Comment
I-S00CAB12-VAC-VGCU01,Test type 1,1,2,3,4,5,Section 1,Subsystem 1,y,Executable1,Instance1,Class1,root1/section1/device1,,y,customGUI1,aggregateGUI1,Description1,Comment1
I-S00CAB12-VAC-VGCU02,Test type 2,6,7,8,9,10,Section 2,Subsystem 2,y,Executable2,Instance2,Class2,root2/section2/device2,,y,customGUI2,aggregateGUI2,Description2,Comment2
